{
  "name": "Hoothoot",
  "nationalPokedexNumber": 163,
  "primaryType": "normal",
  "secondaryType": "flying",
  "abilities": [
    "insomnia",
    "keeneye",
    "h:tintedlens"
  ],
  "baseStats": {
    "hp": 60,
    "attack": 30,
    "defence": 30,
    "special_attack": 36,
    "special_defence": 56,
    "speed": 50
  },
  "catchRate": 255,
  "maleRatio": 0.5,
  "shoulderMountable": false,
  "baseExperienceYield": 52,
  "experienceGroup": "medium_fast",
  "eggCycles": 15,
  "eggGroups": [
    "flying"
  ],
  "moves": [
    "1:foresight",
    "1:growl",
    "1:peck",
    "3:tackle",
    "6:echoedvoice",
    "9:confusion",
    "12:reflect",
    "15:psychoshift",
    "18:airslash",
    "21:extrasensory",
    "24:takedown",
    "27:uproar",
    "30:roost",
    "33:moonblast",
    "36:hypnosis",
    "39:dreameater",
    "43:synchronoise",
    "egg:defog",
    "egg:featherdance",
    "egg:feintattack",
    "egg:meanlook",
    "egg:mirrormove",
    "egg:nightshade",
    "egg:skyattack",
    "egg:supersonic",
    "egg:whirlwind",
    "egg:wingattack",
    "tm:aerialace",
    "tm:agility",
    "tm:airslash",
    "tm:amnesia",
    "tm:attract",
    "tm:calmmind",
    "tm:captivate",
    "tm:confide",
    "tm:doubleteam",
    "tm:endure",
    "tm:facade",
    "tm:fly",
    "tm:frustration",
    "tm:heatwave",
    "tm:hiddenpower",
    "tm:hurricane",
    "tm:hypervoice",
    "tm:imprison",
    "tm:nastyplot",
    "tm:naturalgift",
    "tm:pluck",
    "tm:protect",
    "tm:psychic",
    "tm:psychup",
    "tm:raindance",
    "tm:reflect",
    "tm:rest",
    "tm:return",
    "tm:round",
    "tm:screech",
    "tm:secretpower",
    "tm:shadowball",
    "tm:silverwind",
    "tm:sleeptalk",
    "tm:snore",
    "tm:steelwing",
    "tm:storedpower",
    "tm:substitute",
    "tm:sunnyday",
    "tm:swagger",
    "tm:swift",
    "tm:thief",
    "tm:toxic",
    "tm:uproar",
    "tm:workup",
    "tm:zenheadbutt",
    "tutor:aircutter",
    "tutor:curse",
    "tutor:detect",
    "tutor:doubleedge",
    "tutor:doubleteam",
    "tutor:dualwingbeat",
    "tutor:feintattack",
    "tutor:flash",
    "tutor:foresight",
    "tutor:frustration",
    "tutor:hiddenpower",
    "tutor:magiccoat",
    "tutor:mimic",
    "tutor:mirrormove",
    "tutor:mudslap",
    "tutor:nightmare",
    "tutor:ominouswind",
    "tutor:recycle",
    "tutor:return",
    "tutor:skyattack",
    "tutor:skyattack",
    "tutor:swagger",
    "tutor:tailwind",
    "tutor:toxic",
    "tutor:twister"
  ],
  "labels": [
    "gen2"
  ],
  "pokedex": [
    "cobblemon.species.hoothoot.desc"
  ],
  "evolutions": [
    {
      "id": "hoothoot_noctowl",
      "variant": "level_up",
      "result": "noctowl",
      "consumeHeldItem": false,
      "learnableMoves": [],
      "requirements": [
        {
          "variant": "level",
          "minLevel": 20
        }
      ]
    }
  ],
  "baseScale": 1,
  "hitbox": {
    "width": 1,
    "height": 1,
    "fixed": false
  },
  "baseFriendship": 50,
  "evYield": {
    "hp": 1,
    "attack": 0,
    "defence": 0,
    "special_attack": 0,
    "special_defence": 0,
    "speed": 0
  },
  "height": 7,
  "weight": 212,
  "aspects": [],
  "cannotDynamax": false
}