{
  "implemented": true,
  "name": "Xerneas",
  "nationalPokedexNumber": 716,
  "primaryType": "fairy",
  "abilities": [
    "fairyaura"
  ],
  "baseStats": {
    "hp": 126,
    "attack": 131,
    "defence": 95,
    "special_attack": 131,
    "special_defence": 98,
    "speed": 99
  },
  "catchRate": 45,
  "maleRatio": -1,
  "shoulderMountable": false,
  "forms": [
    {
      "name": "Neutral",
      "primaryType": "fairy",
      "abilities": [
        "fairyaura"
      ],
      "baseStats": {
        "hp": 126,
        "attack": 131,
        "defence": 95,
        "special_attack": 131,
        "special_defence": 98,
        "speed": 99
      },
      "catchRate": 45,
      "maleRatio": -1,
      "baseExperienceYield": 340,
      "baseFriendship": 0,
      "evYield": {
        "hp": 3,
        "attack": 0,
        "defence": 0,
        "special_attack": 0,
        "special_defence": 0,
        "speed": 0
      },
      "experienceGroup": "slow",
      "eggCycles": 120,
      "eggGroups": [
        "undiscovered"
      ],
      "moves": [],
      "labels": [
        "gen6",
        "legendary"
      ],
      "aspects": [
        "neutral"
      ],
      "height": 30,
      "weight": 2150,
      "evolutions": [],
      "cannotDynamax": false,
      "battleOnly": false
    }
  ],
  "baseExperienceYield": 340,
  "experienceGroup": "slow",
  "eggCycles": 120,
  "eggGroups": [
    "undiscovered"
  ],
  "moves": [
    "1:gravity",
    "1:tackle",
    "5:lightscreen",
    "10:aurorabeam",
    "15:naturepower",
    "20:nightslash",
    "25:aromatherapy",
    "30:psychup",
    "35:hornleech",
    "40:mistyterrain",
    "45:ingrain",
    "50:takedown",
    "55:geomancy",
    "60:moonblast",
    "65:healpulse",
    "70:megahorn",
    "75:closecombat",
    "80:outrage",
    "85:gigaimpact",
    "tm:bodyslam",
    "tm:calmmind",
    "tm:closecombat",
    "tm:confide",
    "tm:cut",
    "tm:dazzlinggleam",
    "tm:doubleteam",
    "tm:drainingkiss",
    "tm:echoedvoice",
    "tm:endure",
    "tm:facade",
    "tm:flash",
    "tm:flashcannon",
    "tm:focusblast",
    "tm:frustration",
    "tm:gigaimpact",
    "tm:grassknot",
    "tm:hail",
    "tm:hiddenpower",
    "tm:hyperbeam",
    "tm:hypervoice",
    "tm:lightscreen",
    "tm:megahorn",
    "tm:mistyterrain",
    "tm:outrage",
    "tm:playrough",
    "tm:protect",
    "tm:psychic",
    "tm:psyshock",
    "tm:raindance",
    "tm:reflect",
    "tm:rest",
    "tm:return",
    "tm:roar",
    "tm:rockslide",
    "tm:round",
    "tm:secretpower",
    "tm:sleeptalk",
    "tm:smartstrike",
    "tm:snore",
    "tm:substitute",
    "tm:sunnyday",
    "tm:swagger",
    "tm:swift",
    "tm:thunder",
    "tm:thunderbolt",
    "tm:thunderwave",
    "tm:toxic",
    "tm:wonderroom",
    "tm:zenheadbutt",
    "tutor:block",
    "tutor:dazzlinggleam",
    "tutor:defog",
    "tutor:endeavor",
    "tutor:hornleech",
    "tutor:ingrain",
    "tutor:laserfocus",
    "tutor:mistyexplosion",
    "tutor:moonblast",
    "tutor:terrainpulse"
  ],
  "labels": [
    "gen6",
    "legendary"
  ],
  "pokedex": [
    "cobblemon.species.xerneas.desc"
  ],
  "evolutions": [],
  "baseScale": 1,
  "hitbox": {
    "width": 2,
    "height": 4,
    "fixed": false
  },
  "baseFriendship": 0,
  "evYield": {
    "hp": 3,
    "attack": 0,
    "defence": 0,
    "special_attack": 0,
    "special_defence": 0,
    "speed": 0
  },
  "height": 30,
  "weight": 2150,
  "aspects": [],
  "cannotDynamax": false
}