{
  "species": "cobblemon:magmar",
  "order": 0,
  "variations": [
    {
      "aspects": [],
      "poser": "cobblemon:magmar",
      "model": "cobblemon:magmar.geo",
      "texture": "cobblemon:textures/pokemon/0126_magmar/magmar.png",
      "layers": []
    },
    {
      "aspects": [
        "shiny"
      ],
      "texture": "cobblemon:textures/pokemon/0126_magmar/magmar_shiny.png"
    }
  ]
}