{
  "name": "Dolliv",
  "nationalPokedexNumber": 929,
  "primaryType": "grass",
  "secondaryType": "normal",
  "abilities": [
    "earlybird",
    "h:harvest"
  ],
  "baseStats": {
    "hp": 52,
    "attack": 53,
    "defence": 60,
    "special_attack": 78,
    "special_defence": 78,
    "speed": 33
  },
  "catchRate": 120,
  "maleRatio": 0.5,
  "baseExperienceYield": 0,
  "baseFriendship": 50,
  "evYield": {
    "hp": 0,
    "attack": 0,
    "defence": 0,
    "special_attack": 2,
    "special_defence": 0,
    "speed": 0
  },
  "experienceGroup": "medium_slow",
  "eggCycles": 20,
  "eggGroups": [
    "grass"
  ],
  "moves": [
    "1:sweetscent",
    "1:tackle",
    "5:absorb",
    "7:growth",
    "10:razorleaf",
    "13:helpinghand",
    "16:flail",
    "20:megadrain",
    "23:grassyterrain",
    "29:seedbomb",
    "34:energyball",
    "37:leechseed",
    "42:terrainpulse",
    "tm:bulletseed",
    "tm:charm",
    "tm:earthpower",
    "tm:endure",
    "tm:energyball",
    "tm:facade",
    "tm:gigadrain",
    "tm:grassknot",
    "tm:grassyterrain",
    "tm:helpinghand",
    "tm:leafstorm",
    "tm:magicalleaf",
    "tm:protect",
    "tm:rest",
    "tm:seedbomb",
    "tm:sleeptalk",
    "tm:solarbeam",
    "tm:substitute",
    "tm:sunnyday",
    "tm:swift",
    "tm:terablast",
    "tm:trailblaze"
  ],
  "labels": [
    "gen9"
  ],
  "aspects": [],
  "height": 6,
  "weight": 119,
  "preEvolution": "smoliv",
  "evolutions": [
    {
      "id": "dolliv_arboliva",
      "variant": "level_up",
      "result": "arboliva",
      "consumeHeldItem": false,
      "learnableMoves": [],
      "requirements": [
        {
          "variant": "level",
          "minLevel": 35
        }
      ]
    }
  ],
  "cannotDynamax": false,
  "pokedex": [
    "cobblemon.species.dolliv.desc"
  ]
}