{
  "name": "Ferrothorn",
  "nationalPokedexNumber": 598,
  "primaryType": "grass",
  "secondaryType": "steel",
  "abilities": [
    "ironbarbs",
    "h:anticipation"
  ],
  "baseStats": {
    "hp": 74,
    "attack": 94,
    "defence": 131,
    "special_attack": 54,
    "special_defence": 116,
    "speed": 20
  },
  "catchRate": 90,
  "maleRatio": 0.5,
  "shoulderMountable": false,
  "baseExperienceYield": 171,
  "experienceGroup": "medium_fast",
  "eggCycles": 20,
  "eggGroups": [
    "grass",
    "mineral"
  ],
  "moves": [
    "1:harden",
    "1:metalclaw",
    "1:pinmissile",
    "1:rockclimb",
    "1:rollout",
    "1:tackle",
    "15:ingrain",
    "20:flashcannon",
    "25:ironhead",
    "30:mirrorshot",
    "30:selfdestruct",
    "35:irondefense",
    "43:curse",
    "49:gyroball",
    "56:explosion",
    "tm:aerialace",
    "tm:assurance",
    "tm:attract",
    "tm:bodypress",
    "tm:brutalswing",
    "tm:bulldoze",
    "tm:bulletseed",
    "tm:confide",
    "tm:cut",
    "tm:doubleteam",
    "tm:endure",
    "tm:energyball",
    "tm:facade",
    "tm:flash",
    "tm:flashcannon",
    "tm:frustration",
    "tm:gigadrain",
    "tm:gigaimpact",
    "tm:grassknot",
    "tm:gyroball",
    "tm:heavyslam",
    "tm:hiddenpower",
    "tm:honeclaws",
    "tm:hyperbeam",
    "tm:irondefense",
    "tm:ironhead",
    "tm:naturepower",
    "tm:payback",
    "tm:pinmissile",
    "tm:poisonjab",
    "tm:powerwhip",
    "tm:protect",
    "tm:rest",
    "tm:return",
    "tm:revenge",
    "tm:rockpolish",
    "tm:rocksmash",
    "tm:round",
    "tm:sandstorm",
    "tm:secretpower",
    "tm:seedbomb",
    "tm:selfdestruct",
    "tm:shadowclaw",
    "tm:sleeptalk",
    "tm:snore",
    "tm:solarbeam",
    "tm:spikes",
    "tm:stealthrock",
    "tm:strength",
    "tm:substitute",
    "tm:sunnyday",
    "tm:swagger",
    "tm:swordsdance",
    "tm:thunder",
    "tm:thunderbolt",
    "tm:thunderwave",
    "tm:toxic",
    "tutor:block",
    "tutor:endeavor",
    "tutor:gravity",
    "tutor:knockoff",
    "tutor:magnetrise",
    "tutor:steelbeam",
    "tutor:steelroller",
    "tutor:worryseed"
  ],
  "labels": [
    "gen5"
  ],
  "pokedex": [
    "cobblemon.species.ferrothorn.desc"
  ],
  "preEvolution": "ferroseed",
  "evolutions": [],
  "baseScale": 1,
  "hitbox": {
    "width": 1,
    "height": 1,
    "fixed": false
  },
  "baseFriendship": 50,
  "evYield": {
    "hp": 0,
    "attack": 0,
    "defence": 2,
    "special_attack": 0,
    "special_defence": 0,
    "speed": 0
  },
  "height": 10,
  "weight": 1100,
  "aspects": [],
  "cannotDynamax": false
}