{
  "name": "Karrablast",
  "nationalPokedexNumber": 588,
  "primaryType": "bug",
  "abilities": [
    "swarm",
    "shedskin",
    "h:noguard"
  ],
  "baseStats": {
    "hp": 50,
    "attack": 75,
    "defence": 45,
    "special_attack": 40,
    "special_defence": 45,
    "speed": 60
  },
  "catchRate": 200,
  "maleRatio": 0.5,
  "shoulderMountable": false,
  "baseExperienceYield": 63,
  "experienceGroup": "medium_fast",
  "eggCycles": 15,
  "eggGroups": [
    "bug"
  ],
  "moves": [
    "1:leer",
    "1:peck",
    "4:furycutter",
    "8:endure",
    "12:falseswipe",
    "16:acidspray",
    "16:furyattack",
    "20:headbutt",
    "24:flail",
    "28:scaryface",
    "32:xscissor",
    "36:swordsdance",
    "40:takedown",
    "44:bugbuzz",
    "48:doubleedge",
    "egg:bugbite",
    "egg:counter",
    "egg:feintattack",
    "egg:hornattack",
    "egg:knockoff",
    "egg:nightslash",
    "egg:pursuit",
    "egg:slash",
    "tm:aerialace",
    "tm:attract",
    "tm:bugbuzz",
    "tm:confide",
    "tm:cut",
    "tm:doubleteam",
    "tm:drillrun",
    "tm:encore",
    "tm:endure",
    "tm:energyball",
    "tm:facade",
    "tm:falseswipe",
    "tm:frustration",
    "tm:gigadrain",
    "tm:hiddenpower",
    "tm:infestation",
    "tm:irondefense",
    "tm:megahorn",
    "tm:poisonjab",
    "tm:protect",
    "tm:raindance",
    "tm:rest",
    "tm:return",
    "tm:round",
    "tm:scaryface",
    "tm:screech",
    "tm:secretpower",
    "tm:sleeptalk",
    "tm:snore",
    "tm:strugglebug",
    "tm:substitute",
    "tm:swagger",
    "tm:swordsdance",
    "tm:toxic",
    "tm:xscissor",
    "tutor:signalbeam"
  ],
  "labels": [
    "gen5"
  ],
  "pokedex": [
    "cobblemon.species.karrablast.desc"
  ],
  "evolutions": [
    {
      "id": "karrablast_escavalier",
      "variant": "trade",
      "result": "escavalier",
      "consumeHeldItem": false,
      "learnableMoves": [],
      "requirements": [],
      "requiredContext": "shelmet"
    }
  ],
  "baseScale": 1,
  "hitbox": {
    "width": 1,
    "height": 1,
    "fixed": false
  },
  "baseFriendship": 50,
  "evYield": {
    "hp": 0,
    "attack": 1,
    "defence": 0,
    "special_attack": 0,
    "special_defence": 0,
    "speed": 0
  },
  "height": 5,
  "weight": 59,
  "aspects": [],
  "cannotDynamax": false
}