{
  "name": "Serperior",
  "nationalPokedexNumber": 497,
  "primaryType": "grass",
  "abilities": [
    "overgrow",
    "h:contrary"
  ],
  "baseStats": {
    "hp": 75,
    "attack": 75,
    "defence": 95,
    "special_attack": 75,
    "special_defence": 95,
    "speed": 113
  },
  "catchRate": 45,
  "maleRatio": 0.875,
  "shoulderMountable": false,
  "baseExperienceYield": 238,
  "experienceGroup": "medium_slow",
  "eggCycles": 20,
  "eggGroups": [
    "field",
    "grass"
  ],
  "moves": [
    "1:leer",
    "1:tackle",
    "1:vinewhip",
    "1:wrap",
    "13:growth",
    "16:leaftornado",
    "20:leechseed",
    "24:megadrain",
    "28:slam",
    "32:leafblade",
    "38:coil",
    "44:gigadrain",
    "50:wringout",
    "56:gastroacid",
    "62:leafstorm",
    "tm:aerialace",
    "tm:attract",
    "tm:brutalswing",
    "tm:calmmind",
    "tm:confide",
    "tm:cut",
    "tm:doubleteam",
    "tm:dragontail",
    "tm:energyball",
    "tm:facade",
    "tm:flash",
    "tm:frustration",
    "tm:gigaimpact",
    "tm:grassknot",
    "tm:hiddenpower",
    "tm:hyperbeam",
    "tm:lightscreen",
    "tm:naturepower",
    "tm:protect",
    "tm:reflect",
    "tm:rest",
    "tm:return",
    "tm:rocksmash",
    "tm:round",
    "tm:safeguard",
    "tm:secretpower",
    "tm:sleeptalk",
    "tm:solarbeam",
    "tm:strength",
    "tm:substitute",
    "tm:sunnyday",
    "tm:swagger",
    "tm:swordsdance",
    "tm:taunt",
    "tm:torment",
    "tm:toxic",
    "tm:workup",
    "tutor:aquatail",
    "tutor:bind",
    "tutor:defog",
    "tutor:dragonpulse",
    "tutor:frenzyplant",
    "tutor:gastroacid",
    "tutor:gigadrain",
    "tutor:grasspledge",
    "tutor:holdback",
    "tutor:irontail",
    "tutor:knockoff",
    "tutor:outrage",
    "tutor:seedbomb",
    "tutor:snatch",
    "tutor:snore",
    "tutor:synthesis",
    "tutor:worryseed"
  ],
  "labels": [
    "gen5"
  ],
  "pokedex": [
    "cobblemon.species.serperior.desc"
  ],
  "preEvolution": "servine",
  "evolutions": [],
  "baseScale": 1,
  "hitbox": {
    "width": 1,
    "height": 1,
    "fixed": false
  },
  "baseFriendship": 70,
  "evYield": {
    "hp": 0,
    "attack": 0,
    "defence": 0,
    "special_attack": 0,
    "special_defence": 0,
    "speed": 3
  },
  "height": 33,
  "weight": 630,
  "aspects": [],
  "cannotDynamax": false
}