{
  "name": "Mothim",
  "nationalPokedexNumber": 414,
  "primaryType": "bug",
  "secondaryType": "flying",
  "abilities": [
    "swarm",
    "h:tintedlens"
  ],
  "baseStats": {
    "hp": 70,
    "attack": 94,
    "defence": 50,
    "special_attack": 94,
    "special_defence": 50,
    "speed": 66
  },
  "catchRate": 45,
  "maleRatio": 1,
  "shoulderMountable": false,
  "baseExperienceYield": 148,
  "experienceGroup": "medium_fast",
  "eggCycles": 15,
  "eggGroups": [
    "bug"
  ],
  "moves": [
    "1:bugbite",
    "1:protect",
    "1:quiverdance",
    "1:tackle",
    "20:hiddenpower",
    "23:confusion",
    "26:gust",
    "29:poisonpowder",
    "32:psybeam",
    "35:camouflage",
    "38:silverwind",
    "41:airslash",
    "44:psychic",
    "47:lunge",
    "50:bugbuzz",
    "tm:acrobatics",
    "tm:aerialace",
    "tm:attract",
    "tm:captivate",
    "tm:confide",
    "tm:doubleteam",
    "tm:dreameater",
    "tm:endure",
    "tm:energyball",
    "tm:facade",
    "tm:flash",
    "tm:frustration",
    "tm:gigaimpact",
    "tm:hiddenpower",
    "tm:hyperbeam",
    "tm:infestation",
    "tm:naturalgift",
    "tm:protect",
    "tm:psychic",
    "tm:psychup",
    "tm:raindance",
    "tm:rest",
    "tm:return",
    "tm:roost",
    "tm:round",
    "tm:safeguard",
    "tm:secretpower",
    "tm:shadowball",
    "tm:sleeptalk",
    "tm:solarbeam",
    "tm:strugglebug",
    "tm:substitute",
    "tm:sunnyday",
    "tm:swagger",
    "tm:thief",
    "tm:toxic",
    "tm:uturn",
    "tm:venoshock",
    "tutor:aircutter",
    "tutor:bugbite",
    "tutor:defog",
    "tutor:electroweb",
    "tutor:gigadrain",
    "tutor:mudslap",
    "tutor:ominouswind",
    "tutor:signalbeam",
    "tutor:skillswap",
    "tutor:snore",
    "tutor:stringshot",
    "tutor:swift",
    "tutor:tailwind",
    "tutor:twister"
  ],
  "labels": [
    "gen4"
  ],
  "pokedex": [
    "cobblemon.species.mothim.desc"
  ],
  "preEvolution": "burmy",
  "evolutions": [],
  "baseScale": 1,
  "hitbox": {
    "width": 1,
    "height": 1,
    "fixed": false
  },
  "baseFriendship": 70,
  "evYield": {
    "hp": 0,
    "attack": 1,
    "defence": 0,
    "special_attack": 1,
    "special_defence": 0,
    "speed": 0
  },
  "height": 9,
  "weight": 233,
  "aspects": [],
  "cannotDynamax": false
}