{
  "name": "Weavile",
  "nationalPokedexNumber": 461,
  "primaryType": "dark",
  "secondaryType": "ice",
  "abilities": [
    "pressure",
    "h:pickpocket"
  ],
  "baseStats": {
    "hp": 70,
    "attack": 120,
    "defence": 65,
    "special_attack": 45,
    "special_defence": 85,
    "speed": 125
  },
  "catchRate": 45,
  "maleRatio": 0.5,
  "shoulderMountable": false,
  "baseExperienceYield": 179,
  "experienceGroup": "medium_slow",
  "eggCycles": 20,
  "eggGroups": [
    "field"
  ],
  "moves": [
    "1:agility",
    "1:assurance",
    "1:beatup",
    "1:embargo",
    "1:iceshard",
    "1:leer",
    "1:quickattack",
    "1:revenge",
    "1:scratch",
    "1:slash",
    "1:taunt",
    "10:feintattack",
    "18:metalclaw",
    "24:icywind",
    "30:furyswipes",
    "36:honeclaws",
    "40:snatch",
    "42:fling",
    "44:punishment",
    "48:nastyplot",
    "54:screech",
    "60:nightslash",
    "66:darkpulse",
    "tm:aerialace",
    "tm:agility",
    "tm:attract",
    "tm:avalanche",
    "tm:batonpass",
    "tm:blizzard",
    "tm:brickbreak",
    "tm:calmmind",
    "tm:captivate",
    "tm:chillingwater",
    "tm:confide",
    "tm:cut",
    "tm:darkpulse",
    "tm:dig",
    "tm:doubleteam",
    "tm:dreameater",
    "tm:embargo",
    "tm:endure",
    "tm:facade",
    "tm:faketears",
    "tm:falseswipe",
    "tm:fling",
    "tm:focusblast",
    "tm:foulplay",
    "tm:frustration",
    "tm:gigaimpact",
    "tm:hail",
    "tm:helpinghand",
    "tm:hiddenpower",
    "tm:hyperbeam",
    "tm:icebeam",
    "tm:icepunch",
    "tm:icespinner",
    "tm:iciclespear",
    "tm:icywind",
    "tm:irontail",
    "tm:lowkick",
    "tm:lowsweep",
    "tm:megakick",
    "tm:megapunch",
    "tm:metalclaw",
    "tm:metronome",
    "tm:nastyplot",
    "tm:naturalgift",
    "tm:payback",
    "tm:poisonjab",
    "tm:poweruppunch",
    "tm:protect",
    "tm:psychocut",
    "tm:psychup",
    "tm:raindance",
    "tm:reflect",
    "tm:rest",
    "tm:retaliate",
    "tm:return",
    "tm:revenge",
    "tm:rocksmash",
    "tm:round",
    "tm:scaryface",
    "tm:secretpower",
    "tm:shadowball",
    "tm:shadowclaw",
    "tm:sleeptalk",
    "tm:snarl",
    "tm:snore",
    "tm:snowscape",
    "tm:strength",
    "tm:substitute",
    "tm:sunnyday",
    "tm:surf",
    "tm:swagger",
    "tm:swift",
    "tm:swordsdance",
    "tm:takedown",
    "tm:taunt",
    "tm:terablast",
    "tm:thief",
    "tm:throatchop",
    "tm:torment",
    "tm:toxic",
    "tm:trailblaze",
    "tm:waterpulse",
    "tm:whirlpool",
    "tm:xscissor",
    "tutor:fakeout",
    "tutor:focuspunch",
    "tutor:furycutter",
    "tutor:headbutt",
    "tutor:knockoff",
    "tutor:laserfocus",
    "tutor:lashout",
    "tutor:mudslap",
    "tutor:snatch",
    "tutor:spite",
    "tutor:tripleaxel"
  ],
  "labels": [
    "gen4"
  ],
  "pokedex": [
    "cobblemon.species.weavile.desc"
  ],
  "preEvolution": "sneasel",
  "evolutions": [],
  "baseScale": 1,
  "hitbox": {
    "width": 1,
    "height": 1,
    "fixed": false
  },
  "baseFriendship": 35,
  "evYield": {
    "hp": 0,
    "attack": 1,
    "defence": 0,
    "special_attack": 0,
    "special_defence": 0,
    "speed": 1
  },
  "height": 11,
  "weight": 340,
  "aspects": [],
  "cannotDynamax": false
}