{
  "name": "Hakamo-o",
  "nationalPokedexNumber": 783,
  "primaryType": "dragon",
  "secondaryType": "fighting",
  "abilities": [
    "bulletproof",
    "soundproof",
    "h:overcoat"
  ],
  "baseStats": {
    "hp": 55,
    "attack": 75,
    "defence": 90,
    "special_attack": 65,
    "special_defence": 70,
    "speed": 65
  },
  "catchRate": 45,
  "maleRatio": 0.5,
  "shoulderMountable": false,
  "baseExperienceYield": 147,
  "experienceGroup": "slow",
  "eggCycles": 40,
  "eggGroups": [
    "dragon"
  ],
  "moves": [
    "1:autotomize",
    "1:bide",
    "1:dragontail",
    "1:leer",
    "1:protect",
    "1:skyuppercut",
    "1:tackle",
    "12:scaryface",
    "16:headbutt",
    "20:workup",
    "24:screech",
    "28:irondefense",
    "32:dragonclaw",
    "38:nobleroar",
    "44:dragondance",
    "50:outrage",
    "56:closecombat",
    "tm:aerialace",
    "tm:attract",
    "tm:brickbreak",
    "tm:brutalswing",
    "tm:bulkup",
    "tm:bulldoze",
    "tm:closecombat",
    "tm:confide",
    "tm:doubleteam",
    "tm:dragonclaw",
    "tm:dragondance",
    "tm:dragonpulse",
    "tm:drainpunch",
    "tm:earthquake",
    "tm:echoedvoice",
    "tm:endure",
    "tm:facade",
    "tm:falseswipe",
    "tm:fling",
    "tm:focusblast",
    "tm:frustration",
    "tm:hiddenpower",
    "tm:irondefense",
    "tm:ironhead",
    "tm:irontail",
    "tm:lowkick",
    "tm:megakick",
    "tm:megapunch",
    "tm:outrage",
    "tm:payback",
    "tm:protect",
    "tm:rest",
    "tm:return",
    "tm:reversal",
    "tm:roar",
    "tm:rockslide",
    "tm:rocktomb",
    "tm:round",
    "tm:safeguard",
    "tm:sandstorm",
    "tm:scaryface",
    "tm:screech",
    "tm:shadowclaw",
    "tm:sleeptalk",
    "tm:snore",
    "tm:substitute",
    "tm:swagger",
    "tm:swordsdance",
    "tm:taunt",
    "tm:toxic",
    "tm:uproar",
    "tm:workup",
    "tm:xscissor",
    "tutor:aquatail",
    "tutor:coaching",
    "tutor:dracometeor",
    "tutor:dualchop",
    "tutor:scaleshot"
  ],
  "labels": [
    "gen7"
  ],
  "pokedex": [
    "cobblemon.species.hakamoo.desc"
  ],
  "preEvolution": "jangmoo",
  "evolutions": [
    {
      "id": "hakamoo_kommoo",
      "variant": "level_up",
      "result": "kommoo",
      "consumeHeldItem": false,
      "learnableMoves": [
        "clangingscales"
      ],
      "requirements": [
        {
          "variant": "level",
          "minLevel": 45
        }
      ]
    }
  ],
  "baseScale": 1,
  "hitbox": {
    "width": 1,
    "height": 1,
    "fixed": false
  },
  "baseFriendship": 50,
  "evYield": {
    "hp": 0,
    "attack": 0,
    "defence": 2,
    "special_attack": 0,
    "special_defence": 0,
    "speed": 0
  },
  "height": 12,
  "weight": 470,
  "aspects": [],
  "cannotDynamax": false
}