{
	"format_version": "1.8.0",
	"animations": {
		"animation.milcery.ground_idle": {
			"loop": true,
			"bones": {
				"body": {
					"position": [0, "0.4*math.sin(q.anim_time*90*1.2+90)", 0]
				},
				"drop1": {
					"position": [0, "+0.5+1*math.sin(q.anim_time*90*1.5+1600)", 0]
				},
				"drop2": {
					"position": [0, "+0.5+1*math.sin(q.anim_time*90*1.5+800)", 0]
				},
				"drop3": {
					"position": [0, "+0.5+1*math.sin(q.anim_time*90*1.5+400)", 0]
				},
				"drop4": {
					"position": [0, "+0.5+1*math.sin(q.anim_time*90*1.5+0)", 0]
				},
				"drop5": {
					"position": [0, "+0.5+1*math.sin(q.anim_time*90*1.5+200)", 0]
				},
				"drop6": {
					"position": [0, "+0.5+1*math.sin(q.anim_time*90*1.5+100)", 0]
				},
				"left_fin": {
					"rotation": [0, 0, "3*math.sin(q.anim_time*90*1.2+90)"]
				},
				"right_fin": {
					"rotation": [0, 0, "-3*math.sin(q.anim_time*90*1.2+90)"]
				}
			}
		}
	},
	"geckolib_format_version": 2
}