{
    "enabled": true,
    "neededInstalledMods": [],
    "neededUninstalledMods": [],
    "spawns": [
        {
            "id": "caterpie-1",
            "pokemon": "caterpie",
            "type": "pokemon",
            "context": "grounded",
            "bucket": "common",
            "level": "2-19",
            "weight": 7.0,
            "condition": {
                "canSeeSky": true,
                "biomes": [
                    "#cobblemon:is_forest"
                ]
            },
            "anticondition": {
                "biomes": [
                    "#cobblemon:is_spooky"
                ]
            }
        },
        {
            "id": "caterpie-2",
            "pokemon": "caterpie",
            "presets": [
                "foliage"
            ],
            "type": "pokemon",
            "context": "grounded",
            "bucket": "common",
            "level": "2-19",
            "weight": 7.0,
            "condition": {
                "canSeeSky": true,
                "biomes": [
                    "#cobblemon:is_plains"
                ]
            }
        },
		{
            "id": "caterpie-valencian-1",
            "pokemon": "caterpie valencian",
            "type": "pokemon",
            "context": "grounded",
            "bucket": "common",
            "level": "2-19",
            "weight": 7.0,
            "condition": {
                "canSeeSky": true,
                "biomes": [
                    "#cobblemon:is_jungle"
                ]
            }
        }
    ]
}