{
    "enabled": true,
    "neededInstalledMods": [],
    "neededUninstalledMods": [],
    "spawns": [
        {
            "id": "igglybuff-1",
            "pokemon": "igglybuff",
            "type": "pokemon",
            "context": "grounded",
            "bucket": "common",
            "level": "4-21",
            "weight": 0.9,
            "condition": {
                "canSeeSky": true,
                "biomes": [
                    "#cobblemon:is_floral"
                ]
            }
        },
		{
            "id": "igglybuff-2",
            "pokemon": "igglybuff",
            "type": "pokemon",
            "context": "grounded",
            "bucket": "common",
            "level": "4-21",
            "weight": 0.18,
            "condition": {
                "canSeeSky": true,
                "biomes": [
                    "#cobblemon:is_plains"
                ]
            },
            "anticondition": {
                "biomes": [
                    "#cobblemon:is_floral"
                ]
            }
        }
    ]
}