{
  "implemented": true,
  "name": "Gastly",
  "nationalPokedexNumber": 92,
  "primaryType": "ghost",
  "secondaryType": "poison",
  "abilities": [
    "levitate"
  ],
  "baseStats": {
    "hp": 30,
    "attack": 35,
    "defence": 30,
    "special_attack": 100,
    "special_defence": 35,
    "speed": 80
  },
  "catchRate": 190,
  "maleRatio": 0.5,
  "shoulderMountable": false,
  "baseExperienceYield": 62,
  "experienceGroup": "medium_slow",
  "eggCycles": 20,
  "eggGroups": [
    "amorphous"
  ],
  "behaviour": {
    "moving": {
      "fly": {
        "canFly": true
      },
      "walk": {
        "canWalk": false
      }
    }
  },
  "moves": [
    "1:confuseray",
    "1:lick",
    "4:hypnosis",
    "8:meanlook",
    "12:payback",
    "16:spite",
    "20:curse",
    "24:hex",
    "28:nightshade",
    "32:suckerpunch",
    "36:darkpulse",
    "40:shadowball",
    "44:destinybond",
    "47:nightmare",
    "48:dreameater",
    "egg:astonish",
    "egg:clearsmog",
    "egg:disable",
    "egg:grudge",
    "egg:haze",
    "egg:perishsong",
    "egg:psywave",
    "egg:reflecttype",
    "egg:smog",
    "egg:toxic",
    "tm:acidspray",
    "tm:allyswitch",
    "tm:attract",
    "tm:captivate",
    "tm:confide",
    "tm:confuseray",
    "tm:darkpulse",
    "tm:dazzlinggleam",
    "tm:doubleteam",
    "tm:embargo",
    "tm:endure",
    "tm:energyball",
    "tm:explosion",
    "tm:facade",
    "tm:firepunch",
    "tm:foulplay",
    "tm:frustration",
    "tm:gigadrain",
    "tm:gunkshot",
    "tm:hex",
    "tm:hiddenpower",
    "tm:icepunch",
    "tm:icywind",
    "tm:imprison",
    "tm:infestation",
    "tm:nastyplot",
    "tm:naturalgift",
    "tm:nightshade",
    "tm:poisonjab",
    "tm:protect",
    "tm:psychic",
    "tm:psychup",
    "tm:raindance",
    "tm:rest",
    "tm:return",
    "tm:round",
    "tm:scaryface",
    "tm:secretpower",
    "tm:selfdestruct",
    "tm:shadowball",
    "tm:skillswap",
    "tm:sleeptalk",
    "tm:sludgebomb",
    "tm:sludgewave",
    "tm:snore",
    "tm:substitute",
    "tm:sunnyday",
    "tm:swagger",
    "tm:taunt",
    "tm:terablast",
    "tm:thief",
    "tm:thunder",
    "tm:thunderbolt",
    "tm:thunderpunch",
    "tm:torment",
    "tm:trick",
    "tm:trickroom",
    "tm:uproar",
    "tm:venoshock",
    "tm:willowisp",
    "tm:wonderroom",
    "tutor:bide",
    "tutor:corrosivegas",
    "tutor:doubleteam",
    "tutor:explosion",
    "tutor:frustration",
    "tutor:headbutt",
    "tutor:hiddenpower",
    "tutor:knockoff",
    "tutor:megadrain",
    "tutor:mimic",
    "tutor:nightmare",
    "tutor:ominouswind",
    "tutor:painsplit",
    "tutor:poisongas",
    "tutor:poltergeist",
    "tutor:psychup",
    "tutor:psywave",
    "tutor:rage",
    "tutor:return",
    "tutor:selfdestruct",
    "tutor:skittersmack",
    "tutor:snatch",
    "tutor:swagger",
    "tutor:telekinesis",
    "tutor:zapcannon"
  ],
  "labels": [
    "gen1"
  ],
  "pokedex": [
    "cobblemon.species.gastly.desc"
  ],
  "evolutions": [
    {
      "id": "gastly_haunter",
      "variant": "level_up",
      "result": "haunter",
      "consumeHeldItem": false,
      "learnableMoves": [
        "shadowpunch"
      ],
      "requirements": [
        {
          "variant": "level",
          "minLevel": 25
        }
      ]
    }
  ],
  "baseScale": 1.7,
  "hitbox": {
    "width": 0.4,
    "height": 0.4,
    "fixed": false
  },
  "baseFriendship": 50,
  "evYield": {
    "hp": 0,
    "attack": 0,
    "defence": 0,
    "special_attack": 1,
    "special_defence": 0,
    "speed": 0
  },
  "height": 13,
  "weight": 1,
  "aspects": [],
  "cannotDynamax": false
}