{
  "implemented": true,
  "name": "Shellder",
  "nationalPokedexNumber": 90,
  "primaryType": "water",
  "abilities": [
    "shellarmor",
    "skilllink",
    "h:overcoat"
  ],
  "baseStats": {
    "hp": 30,
    "attack": 65,
    "defence": 100,
    "special_attack": 45,
    "special_defence": 25,
    "speed": 40
  },
  "catchRate": 190,
  "maleRatio": 0.5,
  "shoulderMountable": false,
  "baseExperienceYield": 61,
  "experienceGroup": "slow",
  "eggCycles": 20,
  "eggGroups": [
    "water_3"
  ],
  "behaviour": {
    "moving": {
      "swim": {
        "swimSpeed": 0.1,
        "canSwimInWater": false,
        "canBreatheUnderwater": true
      }
    }
  },
  "moves": [
    "1:tackle",
    "1:watergun",
    "4:withdraw",
    "8:iceshard",
    "12:leer",
    "16:whirlpool",
    "20:supersonic",
    "24:aurorabeam",
    "28:protect",
    "32:razorshell",
    "36:irondefense",
    "40:icebeam",
    "44:shellsmash",
    "48:hydropump",
    "egg:aquaring",
    "egg:barrier",
    "egg:bubblebeam",
    "egg:lifedew",
    "egg:rapidspin",
    "egg:twineedle",
    "egg:waterpulse",
    "tm:attract",
    "tm:avalanche",
    "tm:blizzard",
    "tm:brine",
    "tm:captivate",
    "tm:chillingwater",
    "tm:confide",
    "tm:dive",
    "tm:doubleteam",
    "tm:endure",
    "tm:explosion",
    "tm:facade",
    "tm:frustration",
    "tm:hail",
    "tm:helpinghand",
    "tm:hiddenpower",
    "tm:hydropump",
    "tm:icebeam",
    "tm:icespinner",
    "tm:iciclespear",
    "tm:icywind",
    "tm:irondefense",
    "tm:liquidation",
    "tm:mudshot",
    "tm:naturalgift",
    "tm:payback",
    "tm:protect",
    "tm:raindance",
    "tm:rest",
    "tm:return",
    "tm:rockblast",
    "tm:round",
    "tm:screech",
    "tm:secretpower",
    "tm:selfdestruct",
    "tm:sleeptalk",
    "tm:snore",
    "tm:snowscape",
    "tm:spikes",
    "tm:substitute",
    "tm:surf",
    "tm:swagger",
    "tm:swift",
    "tm:takedown",
    "tm:terablast",
    "tm:toxicspikes",
    "tm:triattack",
    "tm:waterfall",
    "tm:waterpulse",
    "tutor:barrier",
    "tutor:bide",
    "tutor:clamp",
    "tutor:curse",
    "tutor:doubleedge",
    "tutor:doubleteam",
    "tutor:explosion",
    "tutor:frustration",
    "tutor:headbutt",
    "tutor:hiddenpower",
    "tutor:mimic",
    "tutor:rage",
    "tutor:rapidspin",
    "tutor:reflect",
    "tutor:refresh",
    "tutor:return",
    "tutor:selfdestruct",
    "tutor:swagger",
    "tutor:teleport",
    "tutor:toxic",
    "tutor:triattack"
  ],
  "labels": [
    "gen1"
  ],
  "pokedex": [
    "cobblemon.species.shellder.desc"
  ],
  "evolutions": [
    {
      "id": "shellder_cloyster",
      "variant": "item_interact",
      "result": "cloyster",
      "consumeHeldItem": false,
      "learnableMoves": [
        "iciclespear"
      ],
      "requirements": [],
      "requiredContext": "cobblemon:water_stone"
    }
  ],
  "baseScale": 0.8,
  "hitbox": {
    "width": 0.6,
    "height": 0.5,
    "fixed": false
  },
  "baseFriendship": 50,
  "evYield": {
    "hp": 0,
    "attack": 0,
    "defence": 1,
    "special_attack": 0,
    "special_defence": 0,
    "speed": 0
  },
  "height": 3,
  "weight": 40,
  "aspects": [],
  "cannotDynamax": false
}