{
  "implemented": true,
  "name": "Staryu",
  "nationalPokedexNumber": 120,
  "primaryType": "water",
  "abilities": [
    "illuminate",
    "naturalcure",
    "h:analytic"
  ],
  "baseStats": {
    "hp": 30,
    "attack": 45,
    "defence": 55,
    "special_attack": 70,
    "special_defence": 55,
    "speed": 85
  },
  "catchRate": 225,
  "maleRatio": -1,
  "shoulderMountable": false,
  "baseExperienceYield": 68,
  "experienceGroup": "slow",
  "eggCycles": 20,
  "eggGroups": [
    "water_3"
  ],
  "behaviour": {
    "moving": {
      "swim": {
        "swimSpeed": 0.1,
        "canSwimInWater": false,
        "canBreatheUnderwater": true
      }
    }
  },
  "moves": [
    "1:harden",
    "1:tackle",
    "4:watergun",
    "8:confuseray",
    "12:rapidspin",
    "16:minimize",
    "20:swift",
    "22:camouflage",
    "24:psybeam",
    "28:brine",
    "32:lightscreen",
    "35:reflecttype",
    "36:powergem",
    "40:psychic",
    "44:surf",
    "48:recover",
    "52:cosmicpower",
    "56:hydropump",
    "tm:blizzard",
    "tm:brine",
    "tm:confide",
    "tm:cosmicpower",
    "tm:dazzlinggleam",
    "tm:dive",
    "tm:doubleteam",
    "tm:endure",
    "tm:facade",
    "tm:flashcannon",
    "tm:frustration",
    "tm:gyroball",
    "tm:hail",
    "tm:hiddenpower",
    "tm:hydropump",
    "tm:icebeam",
    "tm:icywind",
    "tm:lightscreen",
    "tm:naturalgift",
    "tm:powergem",
    "tm:protect",
    "tm:psychic",
    "tm:psychup",
    "tm:raindance",
    "tm:reflect",
    "tm:rest",
    "tm:return",
    "tm:round",
    "tm:scald",
    "tm:secretpower",
    "tm:sleeptalk",
    "tm:snore",
    "tm:substitute",
    "tm:surf",
    "tm:swagger",
    "tm:swift",
    "tm:thunder",
    "tm:thunderbolt",
    "tm:thunderwave",
    "tm:triattack",
    "tm:waterfall",
    "tm:whirlpool",
    "tutor:attract",
    "tutor:bide",
    "tutor:blizzard",
    "tutor:bubblebeam",
    "tutor:confuseray",
    "tutor:curse",
    "tutor:dazzlinggleam",
    "tutor:doubleedge",
    "tutor:doubleteam",
    "tutor:facade",
    "tutor:flash",
    "tutor:flashcannon",
    "tutor:flipturn",
    "tutor:frustration",
    "tutor:gravity",
    "tutor:harden",
    "tutor:headbutt",
    "tutor:hiddenpower",
    "tutor:hydropump",
    "tutor:icebeam",
    "tutor:lightscreen",
    "tutor:magiccoat",
    "tutor:mimic",
    "tutor:minimize",
    "tutor:painsplit",
    "tutor:protect",
    "tutor:psychic",
    "tutor:psychup",
    "tutor:psywave",
    "tutor:rage",
    "tutor:recover",
    "tutor:recycle",
    "tutor:reflect",
    "tutor:rest",
    "tutor:return",
    "tutor:rollout",
    "tutor:scald",
    "tutor:signalbeam",
    "tutor:skullbash",
    "tutor:substitute",
    "tutor:surf",
    "tutor:swagger",
    "tutor:swift",
    "tutor:tackle",
    "tutor:takedown",
    "tutor:teleport",
    "tutor:thunder",
    "tutor:thunderbolt",
    "tutor:thunderwave",
    "tutor:toxic",
    "tutor:triattack",
    "tutor:twister",
    "tutor:waterfall",
    "tutor:watergun",
    "tutor:waterpulse",
    "tutor:zapcannon"
  ],
  "labels": [
    "gen1"
  ],
  "pokedex": [
    "cobblemon.species.staryu.desc"
  ],
  "evolutions": [
    {
      "id": "staryu_starmie",
      "variant": "item_interact",
      "result": "starmie",
      "consumeHeldItem": false,
      "learnableMoves": [],
      "requirements": [],
      "requiredContext": "cobblemon:water_stone"
    }
  ],
  "baseScale": 0.9,
  "hitbox": {
    "width": 0.8,
    "height": 1,
    "fixed": false
  },
  "baseFriendship": 50,
  "evYield": {
    "hp": 0,
    "attack": 0,
    "defence": 0,
    "special_attack": 0,
    "special_defence": 0,
    "speed": 1
  },
  "height": 8,
  "weight": 345,
  "aspects": [],
  "cannotDynamax": false
}