{
  "implemented": true,
  "name": "Weezing",
  "nationalPokedexNumber": 110,
  "primaryType": "poison",
  "abilities": [
    "levitate",
    "neutralizinggas",
    "h:stench"
  ],
  "baseStats": {
    "hp": 65,
    "attack": 90,
    "defence": 120,
    "special_attack": 85,
    "special_defence": 70,
    "speed": 60
  },
  "catchRate": 60,
  "maleRatio": 0.5,
  "shoulderMountable": false,
  "features": [
    "galarian"
  ],
  "forms": [
    {
      "name": "Galar",
      "primaryType": "poison",
      "secondaryType": "fairy",
      "abilities": [
        "levitate",
        "neutralizinggas",
        "h:mistysurge"
      ],
      "baseStats": {
        "hp": 65,
        "attack": 90,
        "defence": 120,
        "special_attack": 85,
        "special_defence": 70,
        "speed": 60
      },
      "catchRate": 60,
      "maleRatio": 0.5,
      "baseExperienceYield": 172,
      "baseFriendship": 50,
      "evYield": {
        "hp": 0,
        "attack": 0,
        "defence": 2,
        "special_attack": 0,
        "special_defence": 0,
        "speed": 0
      },
      "experienceGroup": "medium_fast",
      "eggCycles": 20,
      "eggGroups": [
        "amorphous"
      ],
      "moves": [
        "1:aromaticmist",
        "1:defog",
        "1:fairywind",
        "1:haze",
        "1:heatwave",
        "1:poisongas",
        "1:smog",
        "1:smokescreen",
        "1:strangesteam",
        "1:tackle",
        "12:clearsmog",
        "16:assurance",
        "20:sludge",
        "24:aromatherapy",
        "28:selfdestruct",
        "32:sludgebomb",
        "38:toxic",
        "44:belch",
        "50:explosion",
        "56:memento",
        "62:destinybond",
        "68:mistyterrain",
        "tm:assurance",
        "tm:attract",
        "tm:brutalswing",
        "tm:darkpulse",
        "tm:dazzlinggleam",
        "tm:endure",
        "tm:facade",
        "tm:fireblast",
        "tm:flamethrower",
        "tm:gigaimpact",
        "tm:gyroball",
        "tm:heatwave",
        "tm:hyperbeam",
        "tm:mistyterrain",
        "tm:overheat",
        "tm:payback",
        "tm:playrough",
        "tm:protect",
        "tm:raindance",
        "tm:rest",
        "tm:round",
        "tm:screech",
        "tm:selfdestruct",
        "tm:shadowball",
        "tm:sleeptalk",
        "tm:sludgebomb",
        "tm:sludgewave",
        "tm:snore",
        "tm:substitute",
        "tm:sunnyday",
        "tm:taunt",
        "tm:thief",
        "tm:thunder",
        "tm:thunderbolt",
        "tm:toxicspikes",
        "tm:uproar",
        "tm:venomdrench",
        "tm:venoshock",
        "tm:willowisp",
        "tm:wonderroom",
        "tutor:corrosivegas",
        "tutor:mistyexplosion"
      ],
      "labels": [
        "gen8",
        "galar_regional"
      ],
      "aspects": [
        "galarian"
      ],
      "height": 30,
      "weight": 160,
      "preEvolution": "koffing",
      "evolutions": [],
      "cannotDynamax": false,
      "battleOnly": false
    }
  ],
  "baseExperienceYield": 172,
  "experienceGroup": "medium_fast",
  "eggCycles": 20,
  "eggGroups": [
    "amorphous"
  ],
  "behaviour": {
    "moving": {
      "fly": {
        "canFly": true
      },
      "walk": {
        "canWalk": false
      }
    }
  },
  "moves": [
    "1:heatwave",
    "1:poisongas",
    "1:smog",
    "1:smokescreen",
    "1:tackle",
    "12:clearsmog",
    "16:assurance",
    "20:sludge",
    "24:haze",
    "28:selfdestruct",
    "32:sludgebomb",
    "38:toxic",
    "44:belch",
    "50:explosion",
    "56:memento",
    "62:destinybond",
    "tm:assurance",
    "tm:attract",
    "tm:captivate",
    "tm:confide",
    "tm:darkpulse",
    "tm:doubleteam",
    "tm:endure",
    "tm:facade",
    "tm:fireblast",
    "tm:flamethrower",
    "tm:flash",
    "tm:frustration",
    "tm:gigaimpact",
    "tm:gyroball",
    "tm:heatwave",
    "tm:hiddenpower",
    "tm:hyperbeam",
    "tm:incinerate",
    "tm:infestation",
    "tm:naturalgift",
    "tm:payback",
    "tm:protect",
    "tm:raindance",
    "tm:rest",
    "tm:return",
    "tm:round",
    "tm:screech",
    "tm:secretpower",
    "tm:selfdestruct",
    "tm:shadowball",
    "tm:sleeptalk",
    "tm:sludgebomb",
    "tm:sludgewave",
    "tm:snore",
    "tm:substitute",
    "tm:sunnyday",
    "tm:swagger",
    "tm:taunt",
    "tm:thief",
    "tm:thunder",
    "tm:thunderbolt",
    "tm:torment",
    "tm:toxicspikes",
    "tm:uproar",
    "tm:venomdrench",
    "tm:venoshock",
    "tm:willowisp",
    "tutor:bide",
    "tutor:clearsmog",
    "tutor:corrosivegas",
    "tutor:curse",
    "tutor:darkpulse",
    "tutor:doubleteam",
    "tutor:explosion",
    "tutor:facade",
    "tutor:fireblast",
    "tutor:flamethrower",
    "tutor:frustration",
    "tutor:haze",
    "tutor:headbutt",
    "tutor:hiddenpower",
    "tutor:hyperbeam",
    "tutor:mimic",
    "tutor:painsplit",
    "tutor:poisongas",
    "tutor:protect",
    "tutor:psybeam",
    "tutor:rage",
    "tutor:rest",
    "tutor:return",
    "tutor:rollout",
    "tutor:screech",
    "tutor:selfdestruct",
    "tutor:shadowball",
    "tutor:shockwave",
    "tutor:sludge",
    "tutor:sludgebomb",
    "tutor:smog",
    "tutor:spite",
    "tutor:substitute",
    "tutor:swagger",
    "tutor:tackle",
    "tutor:taunt",
    "tutor:thunder",
    "tutor:thunderbolt",
    "tutor:toxic",
    "tutor:willowisp",
    "tutor:zapcannon"
  ],
  "labels": [
    "gen1",
    "kanto_regional"
  ],
  "pokedex": [
    "cobblemon.species.weezing.desc"
  ],
  "preEvolution": "koffing",
  "evolutions": [],
  "baseScale": 1.2,
  "hitbox": {
    "width": 1.12,
    "height": 1.2,
    "fixed": false
  },
  "baseFriendship": 50,
  "evYield": {
    "hp": 0,
    "attack": 0,
    "defence": 2,
    "special_attack": 0,
    "special_defence": 0,
    "speed": 0
  },
  "height": 12,
  "weight": 95,
  "aspects": [],
  "cannotDynamax": false
}