{
  "name": "Taillow",
  "nationalPokedexNumber": 276,
  "primaryType": "normal",
  "secondaryType": "flying",
  "abilities": [
    "guts",
    "h:scrappy"
  ],
  "baseStats": {
    "hp": 40,
    "attack": 55,
    "defence": 30,
    "special_attack": 30,
    "special_defence": 30,
    "speed": 85
  },
  "catchRate": 200,
  "maleRatio": 0.5,
  "shoulderMountable": false,
  "baseExperienceYield": 54,
  "experienceGroup": "medium_slow",
  "eggCycles": 15,
  "eggGroups": [
    "flying"
  ],
  "moves": [
    "1:growl",
    "1:peck",
    "5:focusenergy",
    "9:quickattack",
    "13:wingattack",
    "17:doubleteam",
    "21:aerialace",
    "25:quickguard",
    "29:agility",
    "33:airslash",
    "37:endeavor",
    "41:bravebird",
    "45:reversal",
    "egg:boomburst",
    "egg:bravebird",
    "egg:defog",
    "egg:hurricane",
    "egg:mirrormove",
    "egg:pursuit",
    "egg:rage",
    "egg:refresh",
    "egg:roost",
    "egg:skyattack",
    "egg:steelwing",
    "egg:supersonic",
    "egg:whirlwind",
    "tm:aerialace",
    "tm:attract",
    "tm:captivate",
    "tm:confide",
    "tm:doubleteam",
    "tm:echoedvoice",
    "tm:facade",
    "tm:fly",
    "tm:frustration",
    "tm:hiddenpower",
    "tm:naturalgift",
    "tm:pluck",
    "tm:protect",
    "tm:raindance",
    "tm:rest",
    "tm:return",
    "tm:roost",
    "tm:round",
    "tm:secretpower",
    "tm:sleeptalk",
    "tm:steelwing",
    "tm:substitute",
    "tm:sunnyday",
    "tm:swagger",
    "tm:thief",
    "tm:toxic",
    "tm:uturn",
    "tm:workup",
    "tutor:aircutter",
    "tutor:counter",
    "tutor:defog",
    "tutor:doubleedge",
    "tutor:endeavor",
    "tutor:endure",
    "tutor:featherdance",
    "tutor:heatwave",
    "tutor:mimic",
    "tutor:mudslap",
    "tutor:ominouswind",
    "tutor:skyattack",
    "tutor:snore",
    "tutor:swift",
    "tutor:tailwind",
    "tutor:twister"
  ],
  "labels": [
    "gen3"
  ],
  "pokedex": [
    "cobblemon.species.taillow.desc"
  ],
  "evolutions": [
    {
      "id": "taillow_swellow",
      "variant": "level_up",
      "result": "swellow",
      "consumeHeldItem": false,
      "learnableMoves": [],
      "requirements": [
        {
          "variant": "level",
          "minLevel": 22
        }
      ]
    }
  ],
  "baseScale": 1,
  "hitbox": {
    "width": 1,
    "height": 1,
    "fixed": false
  },
  "baseFriendship": 70,
  "evYield": {
    "hp": 0,
    "attack": 0,
    "defence": 0,
    "special_attack": 0,
    "special_defence": 0,
    "speed": 1
  },
  "height": 3,
  "weight": 23,
  "aspects": [],
  "cannotDynamax": false
}