{
	"format_version": "1.8.0",
	"animations": {
		"animation.rowlet.ground_idle": {
			"loop": true,
			"bones": {
				"wing_right_main": {
					"rotation": [90, 0, -85]
				},
				"wing_right1": {
					"rotation": [0, 0, -5]
				},
				"wing_right2": {
					"rotation": [0, 0, -2.5]
				},
				"wing_right3": {
					"rotation": [0, 0, 2.5]
				},
				"wing_left_main": {
					"rotation": [90, 0, 85]
				},
				"wing_left1": {
					"rotation": [0, 0, 5]
				},
				"wing_left2": {
					"rotation": [0, 0, 2.5]
				},
				"wing_left3": {
					"rotation": [0, 0, -2.5]
				}
			}
		},
		"animation.rowlet.blink": {
			"animation_length": 0.16667,
			"bones": {
				"eyelid_left": {
					"position": {
						"0.0": [0, 0, -0.1],
						"0.125": [0, 0, -0.1],
						"0.1667": [0, 0, 0]
					}
				},
				"eyelid_right": {
					"position": {
						"0.0": [0, 0, -0.1],
						"0.125": [0, 0, -0.1],
						"0.1667": [0, 0, 0]
					}
				}
			}
		}
	}
}